6W9K
6W9M
6W9L
6WES
6WIM
6WIL
6WPH
6WPJ
6WPF
6X2E
6WRF
6WR2
6WSG
6WUA
6WUB
6WU9
6X94
6X88
6X9R
6X9T
6X9S
6X9V
6X9U
6WYC
6XCL
6XP7
6XOZ
6XP1
6XP0
6XP3
6XP2
6XP4
6XPW
6XPV
6XPS
6XPU
6XPT
6XRY
6XWD
6XXR
6XZA
6XZB
6YHV
6YN0
6YOE
6YOD
6YOG
6YOF
6YOC
6YOB
6YO1
6Z11
6YP4
6Z38
6Z37
6Z34
6YSO
6Z3Z
6Z3Y
6YUA